Let’s Plot 1: Going in circles | eye Bioinformatician
…
However, we aren’t done. The data is “wide” instead of “long” and we have mixed session IDs (Amp 1-3 and Angle 1-3) with the value type.

Let’s first deal with the wide issue. If we google “R wide to long” we find this page near the top http://www.cookbook-r.com/Manipulating_data/Converting_data_between_wide_and_long_format/ which tells us that gather is the function we want.

Test_Session is the name for the column containing Od Amp1 to Od Angle Value is the name for the column holding the test measurements.

polar_values %>% 
  gather(Test_Session, Value, `Od Amp1`:`Od Angle3`) 

## # A tibble: 30 x 3
##    Patient Test_Session Value
##     <fctr>        <chr> <dbl>
##  1       3      Od Amp1  2.10
##  2       5      Od Amp1  1.56
##  3      14      Od Amp1  4.79
##  4      15      Od Amp1  0.35
##  5      18      Od Amp1  0.91
##  6       3      Od Amp2  3.01
##  7       5      Od Amp2  1.36
##  8      14      Od Amp2  4.73
##  9      15      Od Amp2  0.32
## 10      18      Od Amp2  0.83
## # ... with 20 more rows

Now we need to extract the session (1,2,3) and the test type (Amp or Angle)

We will use the fact that the session is always at the end to our advantage.

The str_sub function from the stringr package allows you to pick ‘negative’ positions in the string. So we pick last value and the first to the second last position to get what we need.

polar_values %>% 
  gather(Test_Session, Value, `Od Amp1`:`Od Angle3`) %>% 
  mutate(Session = str_sub(Test_Session, -1), Test = str_sub(Test_Session,1,-2))

## # A tibble: 30 x 5
##    Patient Test_Session Value Session   Test
##     <fctr>        <chr> <dbl>   <chr>  <chr>
##  1       3      Od Amp1  2.10       1 Od Amp
##  2       5      Od Amp1  1.56       1 Od Amp
##  3      14      Od Amp1  4.79       1 Od Amp
##  4      15      Od Amp1  0.35       1 Od Amp
##  5      18      Od Amp1  0.91       1 Od Amp
##  6       3      Od Amp2  3.01       2 Od Amp
##  7       5      Od Amp2  1.36       2 Od Amp
##  8      14      Od Amp2  4.73       2 Od Amp
##  9      15      Od Amp2  0.32       2 Od Amp
## 10      18      Od Amp2  0.83       2 Od Amp
## # ... with 20 more rows
…
