Let's Plot 8: (Animated) US State Covid-19 Case Count | eye Bioinformatician
…
Many visualizations (e.g. NYTimes, Financial Times) are plotting (on the x-axis) Days Past n Deaths so you can better compare the infection rate across different locations.

Let’s give that a try.

We need to find, for each state, the first Date where Deaths >= 5.

We see the state of Washington was about two weeks ahead of anyone else

day0 <- covid_usa %>% 
  filter(Deaths >= 5) %>% 
  group_by(State) %>% 
  summarise(Day0 = min(Date))
day0 %>% arrange(Day0)

## # A tibble: 37 x 2
##    State      Day0      
##    <chr>      <date>    
##  1 Washington 2020-03-02
##  2 California 2020-03-14
##  3 Florida    2020-03-16
##  4 New York   2020-03-16
##  5 Georgia    2020-03-19
##  6 Louisiana  2020-03-19
##  7 New Jersey 2020-03-19
##  8 Texas      2020-03-19
##  9 Illinois   2020-03-20
## 10 Michigan   2020-03-21
## # … with 27 more rows
…
