Let’s Plot 4: R vs Excel, Round 1 | eye Bioinformatician
…
# clean
micro <- micro %>% 
  slice(2:31) %>% 
  select(`Fish ID` = X__1, 
         Day3_Het = Day3, 
         Day3_Mut = X__2, 
         Day5_Het = Day5, 
         Day5_Mut = X__3) %>% 
  mutate(Day3_Het = as.numeric(Day3_Het),
         Day3_Mut = as.numeric(Day3_Mut),
         Day5_Het = as.numeric(Day5_Het),
         Day5_Mut = as.numeric(Day5_Mut))
micro

## # A tibble: 30 x 5
##    `Fish ID` Day3_Het Day3_Mut Day5_Het Day5_Mut
##    <chr>        <dbl>    <dbl>    <dbl>    <dbl>
##  1 1            0.061    0.048    0.073    0.067
##  2 2            0.071    0.053    0.072    0.082
##  3 3            0.05     0.054    0.077    0.071
##  4 4            0.063    0.058    0.072    0.066
##  5 5            0.064    0.058    0.061    0.071
##  6 6            0.065    0.053    0.075    0.07 
##  7 7            0.058    0.056    0.08     0.07 
##  8 8            0.057    0.053    0.063    0.076
##  9 9            0.065    0.068    0.073    0.071
## 10 10           0.062    0.061    0.072    0.075
## # ... with 20 more rows

Reformatting

We are also going to have to reformat the data since Date and Genotype are mixed together in a column. Would rather have all the data in one column and the date and genotype in their own columns. Confused? Well, just compare the above data to the modified data.

Remember - if this is too intimidating right now, then it is fine to just manually move the data around with Excel to make it look like the below data. Then you can just focus on making the figure.

# wide to long
micro <- micro %>% 
  gather(Date_Genotype, Size, -`Fish ID`) %>% 
  separate(Date_Genotype, c('Date','Genotype'))
micro

## # A tibble: 120 x 4
##    `Fish ID` Date  Genotype  Size
##    <chr>     <chr> <chr>    <dbl>
##  1 1         Day3  Het      0.061
##  2 2         Day3  Het      0.071
##  3 3         Day3  Het      0.05 
##  4 4         Day3  Het      0.063
##  5 5         Day3  Het      0.064
##  6 6         Day3  Het      0.065
##  7 7         Day3  Het      0.058
##  8 8         Day3  Het      0.057
##  9 9         Day3  Het      0.065
## 10 10        Day3  Het      0.062
## # ... with 110 more rows
…
