…
How many data points (bases) per gene?

dd_class %>% 
  group_by(Name) %>% 
  summarise(Count=n())

## # A tibble: 118 x 2
##       Name Count
##      <chr> <int>
##  1   ABCA4  6804
##  2   ABCB6  2527
##  3   AIPL1  1159
##  4 ALDH1A3  1550
##  5    ARL6   569
##  6    ATF6  2008
##  7   ATOH7   457
##  8   BBIP1   220
##  9    BBS1  1773
## 10   BBS10  2172
## # ... with 108 more rows

How many exons per gene?

dd_class %>% 
  select(Name, `Exon Number`) %>% 
  unique() %>% 
  group_by(Name) %>% 
  summarise(Count = n())

## # A tibble: 118 x 2
##       Name Count
##      <chr> <int>
##  1   ABCA4    50
##  2   ABCB6    19
##  3   AIPL1     6
##  4 ALDH1A3    13
##  5    ARL6     7
##  6    ATF6    16
##  7   ATOH7     1
##  8   BBIP1     2
##  9    BBS1    17
## 10   BBS10     2
## # ... with 108 more rows
…
## [1] 6804

Let’s check all of the genes to see which are the worst covered

dd_class %>% 
  group_by(Name) %>% 
  summarise(Total_Bases = n(),
            LT5 = sum(Read_Depth < 5),
            LT10 = sum(Read_Depth < 10),
            Good = sum(Read_Depth >= 10),
            P5 = LT5 / Total_Bases,
            P10 = LT10 / Total_Bases) %>% 
  arrange(-P10)

## # A tibble: 118 x 7
##       Name Total_Bases   LT5  LT10  Good          P5         P10
##      <chr>       <int> <int> <int> <int>       <dbl>       <dbl>
##  1   BBIP1         220     0    61   159 0.000000000 0.277272727
##  2    ISPD        1339     0    57  1282 0.000000000 0.042569081
##  3    CASK        2778     0    79  2699 0.000000000 0.028437725
##  4   NAA10         725     0    10   715 0.000000000 0.013793103
##  5   CNGB3        2436     0    18  2418 0.000000000 0.007389163
##  6    LYST       11400    13    66 11334 0.001140351 0.005789474
##  7   PROM1        2601     0     8  2593 0.000000000 0.003075740
##  8     RET        3348     0     9  3339 0.000000000 0.002688172
##  9  CEP290        7456     0    18  7438 0.000000000 0.002414163
## 10 SLC25A1         933     0     2   931 0.000000000 0.002143623
## # ... with 108 more rows
…
