Split VCF into n pieces by coordinate | eye Bioinformatician
…
## Source: local data frame [86 x 3]
## Groups: <by row>
## 
## # A tibble: 86 x 3
##    contig    length assembly
##    <chr>      <dbl> <chr>   
##  1 1      249250621 b37     
##  2 2      243199373 b37     
##  3 3      198022430 b37     
##  4 4      191154276 b37     
##  5 5      180915260 b37     
##  6 6      171115067 b37     
##  7 7      159138663 b37     
##  8 8      146364022 b37     
##  9 9      141213431 b37     
## 10 10     135534747 b37     
## # ... with 76 more rows
…
