Let's Plot 9: The venerable box plot | eye Bioinformatician
…
Import Excel file

Quick peek into the import. This data is from Figure 2a from the Bharti lab

fig2a_data <- read_tsv('https://github.com/davemcg/davemcg.github.io/raw/master/content/post/fig2.tsv')

## Parsed with column specification:
## cols(
##   `Single layer unfused` = col_character(),
##   `287.57` = col_double()
## )

fig2a_data

## # A tibble: 28 x 2
##    `Single layer unfused` `287.57`
##    <chr>                     <dbl>
##  1 Single layer unfused       302.
##  2 Single layer unfused       248.
##  3 Single layer unfused       296.
##  4 Single layer unfused       307.
##  5 Single layer unfused       179.
##  6 Single layer unfused       453.
##  7 Single layer unfused       143.
##  8 Single layer unfused       189.
##  9 Single layer unfused       239 
## 10 Single layer unfused       327.
## # … with 18 more rows

This doesn’t look right…there’s no header in this data. Let’s re-import.

fig2a_data <- read_tsv('https://github.com/davemcg/davemcg.github.io/raw/master/content/post/fig2.tsv', col_names = FALSE)

## Parsed with column specification:
## cols(
##   X1 = col_character(),
##   X2 = col_double()
## )

fig2a_data

## # A tibble: 29 x 2
##    X1                      X2
##    <chr>                <dbl>
##  1 Single layer unfused  288.
##  2 Single layer unfused  302.
##  3 Single layer unfused  248.
##  4 Single layer unfused  296.
##  5 Single layer unfused  307.
##  6 Single layer unfused  179.
##  7 Single layer unfused  453.
##  8 Single layer unfused  143.
##  9 Single layer unfused  189.
## 10 Single layer unfused  239 
## # … with 19 more rows

Better. Let’s add some column names

colnames(fig2a_data) <- c('Scaffold', 'Young\'s Modulus')
fig2a_data

## # A tibble: 29 x 2
##    Scaffold             `Young's Modulus`
##    <chr>                            <dbl>
##  1 Single layer unfused              288.
##  2 Single layer unfused              302.
##  3 Single layer unfused              248.
##  4 Single layer unfused              296.
##  5 Single layer unfused              307.
##  6 Single layer unfused              179.
##  7 Single layer unfused              453.
##  8 Single layer unfused              143.
##  9 Single layer unfused              189.
## 10 Single layer unfused              239 
## # … with 19 more rows
…
